{
  "$schema": "https://raw.githubusercontent.com/streetsidesoftware/cspell/master/cspell.schema.json",
  "flagWords": [],
  "ignorePaths": [
    ".autodoc/**",
    ".cache/**",
    ".common/**",
    ".config/**",
    ".git/**",
    ".github/**",
    ".gitlab/**",
    ".husky/**",
    ".modules/**",
    ".npm/**",
    ".pnpm-store/**",
    ".shared/**",
    ".task/**",
    ".venv/**",
    ".vscode/**",
    "build/**",
    "dist/**",
    "package.json",
    "package-lock.json",
    "slim.report.json",
    "yarn.lock",
    "tsconfig.json",
    "node_modules/**",
    "pnpm-lock.yaml",
    "roles/**",
    "venv/**"
  ],
  "language": "en",
  "version": "0.1",
  "words": [
    "ansible",
    "archlinux",
    "autokey",
    "bento",
    "buildr",
    "centos",
    "chdir",
    "choco",
    "circleci",
    "codecov",
    "commitlint",
    "cpus",
    "dockerhub",
    "editorconfig",
    "enablerepo",
    "epel",
    "esnext",
    "favicons",
    "fontinstall",
    "gitdocker",
    "gitlab",
    "hyperv",
    "idempotence",
    "koalaman",
    "makepkg",
    "megabytelabs",
    "minikube",
    "mkdir",
    "modifyvm",
    "natdnshostresolver",
    "netaddr",
    "noconfirm",
    "noqa",
    "optionator",
    "pacman",
    "pino",
    "prfssr",
    "professormanhattan",
    "qubes",
    "sandboxed",
    "sbin",
    "shellcheck",
    "startmenu",
    "submodule",
    "submodules",
    "tmpfs",
    "transpiled",
    "typedoc",
    "untracked",
    "venv",
    "videoblobs",
    "virtualbox",
    "webp",
    "yamllint",
    "zalewski",
    "zorin"
  ]
}
